lab_templates/Project/top_test.vcd
$date
   Mon Apr 13 15:31:13 2026
$end

$version
  2025.1.0
  $dumpfile ("top_test.vcd") 
$end

$timescale
  1ps
$end

$scope module Top_Test $end
$var reg 1 ! clk $end
$var reg 1 " btnCpuReset $end
$var reg 1 # btnC $end
$var reg 1 $ btnU $end
$var reg 1 % btnL $end
$var reg 1 & btnR $end
$var reg 1 ' btnD $end
$var reg 16 ( sw [15:0] $end
$var reg 16 ) led [15:0] $end
$var reg 7 * seg [6:0] $end
$var reg 8 + an [7:0] $end
$var reg 16 , expected_led [15:0] $end
$var integer 32 - led_updates [31:0] $end
$scope module dut $end
$var wire 1 . clk $end
$var wire 1 / btnCpuReset $end
$var wire 1 0 btnC $end
$var wire 1 1 btnU $end
$var wire 1 2 btnL $end
$var wire 1 3 btnR $end
$var wire 1 4 btnD $end
$var wire 16 5 sw [15:0] $end
$var reg 16 ) led [15:0] $end
$var wire 7 6 seg [6:0] $end
$var wire 8 7 an [7:0] $end
$var reg 1 8 clk_cpu $end
$var reg 32 9 instr [31:0] $end
$var reg 32 : mem_read_data [31:0] $end
$var reg 1 ; mem_read $end
$var reg 1 < mem_we $end
$var reg 32 = PC [31:0] $end
$var reg 32 > mem_addr [31:0] $end
$var reg 32 ? mem_write_data [31:0] $end
$var reg 32 @ seven_seg_data [31:0] $end
$scope module ss_decoder $end
$var wire 1 A clk $end
$var wire 32 B data [31:0] $end
$var reg 7 C seg [6:0] $end
$var reg 8 D an [7:0] $end
$var reg 13 E counter [12:0] $end
$var reg 3 F an_to_display [2:0] $end
$var reg 4 G byte_to_display [3:0] $end
$upscope $end
$scope module cpu $end
$var wire 1 H clk $end
$var wire 1 I rst $end
$var wire 32 J instrF [31:0] $end
$var wire 32 K ReadDataM [31:0] $end
$var wire 1 L mem_read $end
$var reg 1 < mem_writeM $end
$var wire 32 M pcF [31:0] $end
$var wire 32 N alu_result [31:0] $end
$var reg 32 ? WriteDataM [31:0] $end
$var reg 32 O instrD [31:0] $end
$var reg 2 P PCSD [1:0] $end
$var reg 1 Q reg_writeD $end
$var reg 1 R mem_to_regD $end
$var reg 1 S mem_writeD $end
$var reg 4 T alu_controlD [3:0] $end
$var reg 2 U alu_src_aD [1:0] $end
$var reg 2 V alu_src_bD [1:0] $end
$var reg 32 W RD1D [31:0] $end
$var reg 32 X RD2D [31:0] $end
$var reg 32 Y ExtImmD [31:0] $end
$var reg 5 Z rs1D [4:0] $end
$var reg 5 [ rs2D [4:0] $end
$var reg 5 \ rdD [4:0] $end
$var reg 32 ] pcD [31:0] $end
$var reg 3 ^ funct3D [2:0] $end
$var reg 3 _ ImmSrc [2:0] $end
$var reg 2 ` PCSE [1:0] $end
$var reg 1 a reg_writeE $end
$var reg 1 b mem_to_regE $end
$var reg 1 c mem_writeE $end
$var reg 4 d alu_controlE [3:0] $end
$var reg 2 e alu_src_aE [1:0] $end
$var reg 2 f alu_src_bE [1:0] $end
$var reg 32 g RD1E [31:0] $end
$var reg 32 h RD2E [31:0] $end
$var reg 32 i ExtImmE [31:0] $end
$var reg 5 j rs1E [4:0] $end
$var reg 5 k rs2E [4:0] $end
$var reg 5 l rdE [4:0] $end
$var reg 32 m pcE [31:0] $end
$var reg 3 n funct3E [2:0] $end
$var reg 32 o ForwardedRD1E [31:0] $end
$var reg 32 p ForwardedRD2E [31:0] $end
$var reg 32 q SrcA [31:0] $end
$var reg 32 r SrcA_PC [31:0] $end
$var reg 32 s SrcB [31:0] $end
$var reg 32 t SrcB_Ext [31:0] $end
$var reg 32 u WriteDataE [31:0] $end
$var reg 32 v alu_resultE [31:0] $end
$var reg 3 w alu_flags [2:0] $end
$var reg 2 x PC_src [1:0] $end
$var reg 32 y pc_in [31:0] $end
$var reg 1 z control_hazardE $end
$var reg 1 { reg_writeM $end
$var reg 1 | mem_to_regM $end
$var reg 32 } alu_resultM [31:0] $end
$var reg 5 ~ rdM [4:0] $end
$var reg 32 !! ResultM [31:0] $end
$var reg 1 "! reg_writeW $end
$var reg 1 #! mem_to_regW $end
$var reg 5 $! rdW [4:0] $end
$var reg 32 %! ReadDataW [31:0] $end
$var reg 32 &! alu_resultW [31:0] $end
$var reg 32 '! WD [31:0] $end
$scope module extend $end
$var wire 32 (! InstrImm [31:0] $end
$var wire 3 )! ImmSrc [2:0] $end
$var reg 32 Y ExtImm [31:0] $end
$upscope $end
$scope module decoder $end
$var reg 32 O instr [31:0] $end
$var reg 2 P PCS [1:0] $end
$var reg 1 R mem_to_reg $end
$var reg 1 S mem_write $end
$var reg 4 T alu_control [3:0] $end
$var reg 2 U alu_src_a [1:0] $end
$var reg 2 V alu_src_b [1:0] $end
$var reg 3 _ imm_src [2:0] $end
$var reg 1 Q reg_write $end
$var reg 7 *! opcode [6:0] $end
$var reg 3 +! funct3 [2:0] $end
$var reg 7 ,! funct7 [6:0] $end
$var reg 1 -! ALUControl_0 $end
$upscope $end
$scope module alu $end
$var wire 32 .! src_a [31:0] $end
$var wire 32 /! src_b [31:0] $end
$var wire 4 0! control [3:0] $end
$var reg 32 v result [31:0] $end
$var reg 3 w flags [2:0] $end
$var reg 3 1! xilinx_isim_temp_0_ln28_blkAssignCaching [2:0] $end
$upscope $end
$scope module regfile $end
$var wire 1 H clk $end
$var wire 1 2! we $end
$var wire 5 3! rs1 [4:0] $end
$var wire 5 4! rs2 [4:0] $end
$var wire 5 5! rd [4:0] $end
$var wire 32 6! WD [31:0] $end
$var reg 32 W RD1 [31:0] $end
$var reg 32 X RD2 [31:0] $end
$upscope $end
$scope module pc_logic $end
$var wire 2 7! PCS [1:0] $end
$var wire 3 8! funct3 [2:0] $end
$var wire 3 9! alu_flags [2:0] $end
$var reg 2 x PC_src [1:0] $end
$upscope $end
$scope module programcounter $end
$var wire 1 H clk $end
$var wire 1 I rst $end
$var wire 32 :! pc_in [31:0] $end
$var reg 32 ;! pc [31:0] $end
$upscope $end
$upscope $end
$upscope $end
$upscope $end
$enddefinitions $end

#0
$dumpvars
0!
b0 !!
0"
0"!
0#
0#!
0$
b0 $!
0%
b0 %!
0&
b0 &!
0'
b0 '!
b10101010 (
b10011 (!
b0 )
b11 )!
bx *
b10011 *!
bx +
b0 +!
b1 ,
b0 ,!
b0 -
0-!
0.
b0 .!
0/
b0 /!
00
b0 0!
01
b100 1!
02
02!
03
b0 3!
04
b0 4!
b10101010 5
b0 5!
bx 6
b0 6!
bx 7
b0 7!
08
b0 8!
b10000010110111 9
b100 9!
b11011101111011101010101011011101 :
b100 :!
0;
b0 ;!
0<
b0 =
b0 >
b0 ?
b0 @
0A
b0 B
bx C
bx D
b0 E
b0 F
bx G
0H
1I
b10000010110111 J
b11011101111011101010101011011101 K
0L
b0 M
b0 N
b10011 O
b0 P
1Q
0R
0S
b0 T
b0 U
b11 V
b0 W
b0 X
b0 Y
b0 Z
b0 [
b0 \
b0 ]
b0 ^
b11 _
b0 `
0a
0b
0c
b0 d
b0 e
b0 f
b0 g
b0 h
b0 i
b0 j
b0 k
b0 l
b0 m
b0 n
b0 o
b0 p
b0 q
b0 r
b0 s
b100 t
b0 u
b0 v
b100 w
b0 x
b100 y
0z
0{
0|
b0 }
b0 ~
$end

#5000
1!
b1000000 *
b1111111 +
1.
b1000000 6
b1111111 7
18
1A
b1000000 C
b1111111 D
b1 E
b1 F
b0 G
1H

#10000
0!
0.
08
0A
0H

#15000
1!
1"
b10111111 +
1.
1/
b10111111 7
18
1A
b10111111 D
b10 E
1H
0I

#20000
0!
0.
08
0A
0H

#25000
1!
b11011101111011101010101011011101 %!
b10000010110111 (!
b0 )!
b110111 *!
b10 +!
1.
b0 /!
18
b100000000000100010011 9
b1000 :!
b100 ;!
b100 =
1A
b11 E
1H
b100000000000100010011 J
b100 M
b10000010110111 O
1Q
b1 U
b11 V
b10000000000000 Y
b1 \
b10 ^
b0 _
1a
b11 f
b0 s
b0 t
b1000 y

#30000
0!
0.
08
0A
0H

#35000
1!
b100000000000100010011 (!
b11 )!
b10011 *!
b0 +!
1.
b10000000000000 /!
b11 1!
b1 4!
18
b10 8!
b10000000110110111 9
b11 9!
b1100 :!
b1000 ;!
b1000 =
1A
b100 E
1H
b10000000110110111 J
b1000 M
b100000000000100010011 O
1Q
b0 U
b11 V
bx X
b1 Y
b1 [
b10 \
b100 ]
b0 ^
b11 _
b1 e
b10000000000000 i
b1 l
b10 n
b10000000000000 s
b10000000000000 t
b10000000000000 v
b11 w
b1100 y
1{

#40000
0!
0.
08
0A
0H

#45000
1!
b10000000000000 !!
1"!
b10000000110110111 (!
b0 )!
b110111 *!
1.
b1 /!
12!
b10 3!
b0 4!
18
b0 8!
b1000000000000001000000010010011 9
b100 :
b10000 :!
b1100 ;!
b1100 =
b10000000000000 >
1A
b101 E
1H
b1000000000000001000000010010011 J
b100 K
b1100 M
b10000000000000 N
b10000000110110111 O
1Q
b1 U
b11 V
bx W
b0 X
b10000000000000000 Y
b10 Z
b0 [
b11 \
b1000 ]
b0 _
b0 e
bx h
b1 i
b1 k
b10 l
b100 m
b0 n
b10000000000000 p
b1 s
b1 t
b10000000000000 u
b1 v
b10000 y
b10000000000000 }
b1 ~

#50000
0!
0.
08
0A
0H

#55000
1!
b1 !!
b1 $!
b100 %!
b10000000000000 &!
b10000000000000 '!
b1000000000000001000000010010011 (!
b11 )!
b10011 *!
b100000 ,!
1.
b10000000000000000 /!
b1 3!
b1 5!
b10000000000000 6!
18
b1010000000000001000010011 9
b11011101111011101010101011011101 :
b10100 :!
b10000 ;!
b10000 =
b1 >
b10000000000000 ?
1A
b110 E
1H
b1010000000000001000010011 J
b11011101111011101010101011011101 K
b10000 M
b1 N
b1000000000000001000000010010011 O
1Q
b0 U
b11 V
b10000000000000 W
b10000000000 Y
b1 Z
b1 \
b1100 ]
b11 _
b1 e
bx g
b0 h
b10000000000000000 i
b10 j
b0 k
b11 l
b1000 m
b1 o
b0 p
b10000000000000000 s
b10000000000000000 t
b0 u
b10000000000000000 v
b10100 y
b1 }
b10 ~

#60000
0!
0.
08
0A
0H

#65000
1!
b10000000000000000 !!
b10 $!
b11011101111011101010101011011101 %!
b1 &!
b1 '!
b1010000000000001000010011 (!
b0 ,!
1.
b10000000000000 .!
b10000000000 /!
b0 1!
b0 3!
b10100 4!
b10 5!
b1 6!
18
b1000001010000000100011 9
b0 9!
b11000 :!
b10100 ;!
b10100 =
b10000000000000000 >
b0 ?
1A
b111 E
1H
b1000001010000000100011 J
b10100 M
b10000000000000000 N
b1010000000000001000010011 O
1Q
b11 V
b0 W
bx X
b10100 Y
b0 Z
b10100 [
b100 \
b10000 ]
b11 _
b0 e
b10000000000000 g
b10000000000 i
b1 j
b1 l
b1100 m
b10000000000000 o
b10000000000000 q
b10000000000 s
b10000000000 t
b10010000000000 v
b0 w
b11000 y
b10000000000000000 }
b11 ~

#70000
0!
0.
08
0A
0H

#75000
1!
b10010000000000 !!
b11 $!
b10000000000000000 &!
b10000000000000000 '!
b1000001010000000100011 (!
b110 )!
b100011 *!
b10 +!
1.
b0 .!
b10100 /!
b11 1!
b1 3!
b10 4!
b11 5!
b10000000000000000 6!
18
b11111111111100100000001000010011 9
b11 9!
b11100 :!
b11000 ;!
b11000 =
b10010000000000 >
1A
b1000 E
1H
b11111111111100100000001000010011 J
b11000 M
b10010000000000 N
b1000001010000000100011 O
0Q
1S
b11 V
b10000000000000 W
b1 X
b0 Y
b1 Z
b10 [
b0 \
b10100 ]
b10 ^
b110 _
b0 g
bx h
b10100 i
b0 j
b10100 k
b100 l
b10000 m
b0 o
bx p
b0 q
b10100 s
b10100 t
bx u
b10100 v
b11 w
b11100 y
b10010000000000 }
b1 ~

#80000
0!
0.
08
0A
0H

#85000
1!
b10100 !!
b1 $!
b10010000000000 &!
b10010000000000 '!
b11111111111100100000001000010011 (!
b11 )!
b10011 *!
b0 +!
b1111111 ,!
1.
b10010000000000 .!
b0 /!
b0 1!
b100 3!
b11111 4!
b1 5!
b10010000000000 6!
18
b10 8!
b11111110000000100001111011100011 9
b0 9!
b100000 :!
b11100 ;!
b11100 =
b10100 >
bx ?
1A
b1001 E
1H
b11111110000000100001111011100011 J
b11100 M
b10100 N
b11111111111100100000001000010011 O
1Q
0S
b11 V
bx W
bx X
b11111111111111111111111111111111 Y
b100 Z
b11111 [
b100 \
b11000 ]
b0 ^
b11 _
0a
1c
b10000000000000 g
b1 h
b0 i
b1 j
b10 k
b0 l
b10100 m
b10 n
b10010000000000 o
b1 p
b10010000000000 q
b0 s
b0 t
b1 u
b10010000000000 v
b0 w
b100000 y
b10100 }
b100 ~

#90000
0!
0.
08
0A
0H

#95000
1!
b10010000000000 !!
b100 $!
b10100 &!
b10100 '!
b11111110000000100001111011100011 (!
b111 )!
b1100011 *!
b1 +!
1.
b10100 .!
b11111111111111111111111111111111 /!
b1 1!
b0 4!
b100 5!
b10100 6!
18
b0 8!
b100010001000100010011 9
b1 9!
b100100 :!
b100000 ;!
1<
b100000 =
b10010000000000 >
b1 ?
1A
b1010 E
1H
b100010001000100010011 J
b100000 M
b10010000000000 N
b11111110000000100001111011100011 O
b1 P
0Q
b1 T
b0 V
b10100 W
b0 X
b11111111111111111111111111111100 Y
b0 [
b11101 \
b11100 ]
b1 ^
b111 _
1a
0c
bx g
bx h
b11111111111111111111111111111111 i
b100 j
b11111 k
b100 l
b11000 m
b0 n
b10100 o
bx p
b10100 q
b11111111111111111111111111111111 s
b11111111111111111111111111111111 t
bx u
b10011 v
b1 w
b100100 y
0{
b10010000000000 }
b0 ~

#100000
0!
0.
08
0A
0H

#105000
1!
b10011 !!
0"!
b0 $!
b10010000000000 &!
b10010000000000 '!
b100010001000100010011 (!
b1 )
b11 )!
b10011 *!
b10 ,
b0 ,!
b1 -
1.
b10011 .!
b0 /!
b1 0!
b0 1!
02!
b10 3!
b1 4!
b0 5!
b10010000000000 6!
b1 7!
18
b1 8!
b11111110001100010001011011100011 9
b0 9!
b11000 :!
b100100 ;!
0<
b100100 =
b10011 >
bx ?
1A
b1011 E
1H
b11111110001100010001011011100011 J
b100100 M
b10011 N
b100010001000100010011 O
b0 P
1Q
b10 T
b11 V
b1 W
b10010000000000 X
b1 Y
b10 Z
b1 [
b10 \
b100000 ]
b11 _
b1 `
0a
b1 d
b0 f
b10100 g
b0 h
b11111111111111111111111111111100 i
b0 k
b11101 l
b11100 m
b1 n
b10011 o
b0 p
b10011 q
b0 s
b100 t
b0 u
b10011 v
b0 w
b1 x
b11000 y
1z
1{
b10011 }
b100 ~

#110000
0!
0.
08
0A
0H

#115000
1!
1"!
b100 $!
b10011 &!
b10011 '!
b10011 (!
b0 +!
1.
b0 .!
b0 0!
b100 1!
12!
b0 3!
b0 4!
b100 5!
b10011 6!
b0 7!
18
b0 8!
b11111111111100100000001000010011 9
b100 9!
b11100 :!
b11000 ;!
b11000 =
b0 ?
1A
b1100 E
1H
b11111111111100100000001000010011 J
b11000 M
b10011 O
1Q
b0 T
b11 V
b0 W
b0 X
b0 Y
b0 Z
b0 [
b0 \
b0 ]
b0 ^
b11 _
b0 `
b0 d
b0 g
b0 i
b0 j
b0 l
b0 m
b0 n
b0 o
b0 q
b0 v
b100 w
b0 x
b11100 y
0z
0{
b11101 ~

#120000
0!
0.
08
0A
0H

#125000
1!
b0 !!
0"!
b11101 $!
b11111111111100100000001000010011 (!
b1111111 ,!
1.
b0 /!
02!
b100 3!
b11111 4!
b11101 5!
18
b11111110000000100001111011100011 9
b100000 :!
b11100 ;!
b11100 =
b0 >
1A
b1101 E
1H
b11111110000000100001111011100011 J
b11100 M
b0 N
b11111111111100100000001000010011 O
1Q
b11 V
b10011 W
bx X
b11111111111111111111111111111111 Y
b100 Z
b11111 [
b100 \
b11000 ]
b11 _
1a
b11 f
b0 s
b0 t
b100000 y
b0 }
b0 ~

#130000
0!
0.
08
0A
0H

#135000
1!
b0 $!
b0 &!
b0 '!
b11111110000000100001111011100011 (!
b111 )!
b1100011 *!
b1 +!
1.
b10011 .!
b11111111111111111111111111111111 /!
b1 1!
b0 4!
b0 5!
b0 6!
18
b100010001000100010011 9
b1 9!
b100100 :!
b100000 ;!
b100000 =
1A
b1110 E
1H
b100010001000100010011 J
b100000 M
b11111110000000100001111011100011 O
b1 P
0Q
b1 T
b0 V
b0 X
b11111111111111111111111111111100 Y
b0 [
b11101 \
b11100 ]
b1 ^
b111 _
b10011 g
bx h
b11111111111111111111111111111111 i
b100 j
b11111 k
b100 l
b11000 m
b10011 o
bx p
b10011 q
b11111111111111111111111111111111 s
b11111111111111111111111111111111 t
bx u
b10010 v
b1 w
b100100 y
1{

#140000
0!
0.
08
0A
0H

#145000
1!
b10010 !!
1"!
b100010001000100010011 (!
b11 )!
b10011 *!
b0 ,!
1.
b10010 .!
b0 /!
b1 0!
b0 1!
12!
b10 3!
b1 4!
b1 7!
18
b1 8!
b11111110001100010001011011100011 9
b0 9!
b11000 :!
b100100 ;!
b100100 =
b10010 >
bx ?
1A
b1111 E
1H
b11111110001100010001011011100011 J
b100100 M
b10010 N
b100010001000100010011 O
b0 P
1Q
b10 T
b11 V
b1 W
b10010000000000 X
b1 Y
b10 Z
b1 [
b10 \
b100000 ]
b11 _
b1 `
0a
b1 d
b0 f
b0 h
b11111111111111111111111111111100 i
b0 k
b11101 l
b11100 m
b1 n
b10010 o
b0 p
b10010 q
b0 s
b100 t
b0 u
b10010 v
b0 w
b1 x
b11000 y
1z
b10010 }
b100 ~

#150000
0!
0.
08
0A
0H

#155000
1!
b100 $!
b10010 &!
b10010 '!
b10011 (!
b0 +!
1.
b0 .!
b0 0!
b100 1!
b0 3!
b0 4!
b100 5!
b10010 6!
b0 7!
18
b0 8!
b11111111111100100000001000010011 9
b100 9!
b11100 :!
b11000 ;!
b11000 =
b0 ?
1A
b10000 E
1H
b11111111111100100000001000010011 J
b11000 M
b10011 O
1Q
b0 T
b11 V
b0 W
b0 X
b0 Y
b0 Z
b0 [
b0 \
b0 ]
b0 ^
b11 _
b0 `
b0 d
b0 g
b0 i
b0 j
b0 l
b0 m
b0 n
b0 o
b0 q
b0 v
b100 w
b0 x
b11100 y
0z
0{
b11101 ~

#160000
0!
0.
08
0A
0H

#165000
1!
b0 !!
0"!
b11101 $!
b11111111111100100000001000010011 (!
b1111111 ,!
1.
b0 /!
02!
b100 3!
b11111 4!
b11101 5!
18
b11111110000000100001111011100011 9
b100000 :!
b11100 ;!
b11100 =
b0 >
1A
b10001 E
1H
b11111110000000100001111011100011 J
b11100 M
b0 N
b11111111111100100000001000010011 O
1Q
b11 V
b10010 W
bx X
b11111111111111111111111111111111 Y
b100 Z
b11111 [
b100 \
b11000 ]
b11 _
1a
b11 f
b0 s
b0 t
b100000 y
b0 }
b0 ~

#170000
0!
0.
08
0A
0H

#175000
1!
b0 $!
b0 &!
b0 '!
b11111110000000100001111011100011 (!
b111 )!
b1100011 *!
b1 +!
1.
b10010 .!
b11111111111111111111111111111111 /!
b1 1!
b0 4!
b0 5!
b0 6!
18
b100010001000100010011 9
b1 9!
b100100 :!
b100000 ;!
b100000 =
1A
b10010 E
1H
b100010001000100010011 J
b100000 M
b11111110000000100001111011100011 O
b1 P
0Q
b1 T
b0 V
b0 X
b11111111111111111111111111111100 Y
b0 [
b11101 \
b11100 ]
b1 ^
b111 _
b10010 g
bx h
b11111111111111111111111111111111 i
b100 j
b11111 k
b100 l
b11000 m
b10010 o
bx p
b10010 q
b11111111111111111111111111111111 s
b11111111111111111111111111111111 t
bx u
b10001 v
b1 w
b100100 y
1{

#180000
0!
0.
08
0A
0H

#185000
1!
b10001 !!
1"!
b100010001000100010011 (!
b11 )!
b10011 *!
b0 ,!
1.
b10001 .!
b0 /!
b1 0!
b0 1!
12!
b10 3!
b1 4!
b1 7!
18
b1 8!
b11111110001100010001011011100011 9
b0 9!
b11000 :!
b100100 ;!
b100100 =
b10001 >
bx ?
1A
b10011 E
1H
b11111110001100010001011011100011 J
b100100 M
b10001 N
b100010001000100010011 O
b0 P
1Q
b10 T
b11 V
b1 W
b10010000000000 X
b1 Y
b10 Z
b1 [
b10 \
b100000 ]
b11 _
b1 `
0a
b1 d
b0 f
b0 h
b11111111111111111111111111111100 i
b0 k
b11101 l
b11100 m
b1 n
b10001 o
b0 p
b10001 q
b0 s
b100 t
b0 u
b10001 v
b0 w
b1 x
b11000 y
1z
b10001 }
b100 ~

#190000
0!
0.
08
0A
0H

#195000
1!
b100 $!
b10001 &!
b10001 '!
b10011 (!
b0 +!
1.
b0 .!
b0 0!
b100 1!
b0 3!
b0 4!
b100 5!
b10001 6!
b0 7!
18
b0 8!
b11111111111100100000001000010011 9
b100 9!
b11100 :!
b11000 ;!
b11000 =
b0 ?
1A
b10100 E
1H
b11111111111100100000001000010011 J
b11000 M
b10011 O
1Q
b0 T
b11 V
b0 W
b0 X
b0 Y
b0 Z
b0 [
b0 \
b0 ]
b0 ^
b11 _
b0 `
b0 d
b0 g
b0 i
b0 j
b0 l
b0 m
b0 n
b0 o
b0 q
b0 v
b100 w
b0 x
b11100 y
0z
0{
b11101 ~

#200000
0!
0.
08
0A
0H

#205000
1!
b0 !!
0"!
b11101 $!
b11111111111100100000001000010011 (!
b1111111 ,!
1.
b0 /!
02!
b100 3!
b11111 4!
b11101 5!
18
b11111110000000100001111011100011 9
b100000 :!
b11100 ;!
b11100 =
b0 >
1A
b10101 E
1H
b11111110000000100001111011100011 J
b11100 M
b0 N
b11111111111100100000001000010011 O
1Q
b11 V
b10001 W
bx X
b11111111111111111111111111111111 Y
b100 Z
b11111 [
b100 \
b11000 ]
b11 _
1a
b11 f
b0 s
b0 t
b100000 y
b0 }
b0 ~

#210000
0!
0.
08
0A
0H

#215000
1!
b0 $!
b0 &!
b0 '!
b11111110000000100001111011100011 (!
b111 )!
b1100011 *!
b1 +!
1.
b10001 .!
b11111111111111111111111111111111 /!
b1 1!
b0 4!
b0 5!
b0 6!
18
b100010001000100010011 9
b1 9!
b100100 :!
b100000 ;!
b100000 =
1A
b10110 E
1H
b100010001000100010011 J
b100000 M
b11111110000000100001111011100011 O
b1 P
0Q
b1 T
b0 V
b0 X
b11111111111111111111111111111100 Y
b0 [
b11101 \
b11100 ]
b1 ^
b111 _
b10001 g
bx h
b11111111111111111111111111111111 i
b100 j
b11111 k
b100 l
b11000 m
b10001 o
bx p
b10001 q
b11111111111111111111111111111111 s
b11111111111111111111111111111111 t
bx u
b10000 v
b1 w
b100100 y
1{

#220000
0!
0.
08
0A
0H

#225000
1!
b10000 !!
1"!
b100010001000100010011 (!
b11 )!
b10011 *!
b0 ,!
1.
b10000 .!
b0 /!
b1 0!
b0 1!
12!
b10 3!
b1 4!
b1 7!
18
b1 8!
b11111110001100010001011011100011 9
b0 9!
b11000 :!
b100100 ;!
b100100 =
b10000 >
bx ?
1A
b10111 E
1H
b11111110001100010001011011100011 J
b100100 M
b10000 N
b100010001000100010011 O
b0 P
1Q
b10 T
b11 V
b1 W
b10010000000000 X
b1 Y
b10 Z
b1 [
b10 \
b100000 ]
b11 _
b1 `
0a
b1 d
b0 f
b0 h
b11111111111111111111111111111100 i
b0 k
b11101 l
b11100 m
b1 n
b10000 o
b0 p
b10000 q
b0 s
b100 t
b0 u
b10000 v
b0 w
b1 x
b11000 y
1z
b10000 }
b100 ~

#230000
0!
0.
08
0A
0H

#235000
1!
b100 $!
b10000 &!
b10000 '!
b10011 (!
b0 +!
1.
b0 .!
b0 0!
b100 1!
b0 3!
b0 4!
b100 5!
b10000 6!
b0 7!
18
b0 8!
b11111111111100100000001000010011 9
b100 9!
b11100 :!
b11000 ;!
b11000 =
b0 ?
1A
b11000 E
1H
b11111111111100100000001000010011 J
b11000 M
b10011 O
1Q
b0 T
b11 V
b0 W
b0 X
b0 Y
b0 Z
b0 [
b0 \
b0 ]
b0 ^
b11 _
b0 `
b0 d
b0 g
b0 i
b0 j
b0 l
b0 m
b0 n
b0 o
b0 q
b0 v
b100 w
b0 x
b11100 y
0z
0{
b11101 ~

#240000
0!
0.
08
0A
0H

#245000
1!
b0 !!
0"!
b11101 $!
b11111111111100100000001000010011 (!
b1111111 ,!
1.
b0 /!
02!
b100 3!
b11111 4!
b11101 5!
18
b11111110000000100001111011100011 9
b100000 :!
b11100 ;!
b11100 =
b0 >
1A
b11001 E
1H
b11111110000000100001111011100011 J
b11100 M
b0 N
b11111111111100100000001000010011 O
1Q
b11 V
b10000 W
bx X
b11111111111111111111111111111111 Y
b100 Z
b11111 [
b100 \
b11000 ]
b11 _
1a
b11 f
b0 s
b0 t
b100000 y
b0 }
b0 ~

#250000
0!
0.
08
0A
0H

#255000
1!
b0 $!
b0 &!
b0 '!
b11111110000000100001111011100011 (!
b111 )!
b1100011 *!
b1 +!
1.
b10000 .!
b11111111111111111111111111111111 /!
b1 1!
b0 4!
b0 5!
b0 6!
18
b100010001000100010011 9
b1 9!
b100100 :!
b100000 ;!
b100000 =
1A
b11010 E
1H
b100010001000100010011 J
b100000 M
b11111110000000100001111011100011 O
b1 P
0Q
b1 T
b0 V
b0 X
b11111111111111111111111111111100 Y
b0 [
b11101 \
b11100 ]
b1 ^
b111 _
b10000 g
bx h
b11111111111111111111111111111111 i
b100 j
b11111 k
b100 l
b11000 m
b10000 o
bx p
b10000 q
b11111111111111111111111111111111 s
b11111111111111111111111111111111 t
bx u
b1111 v
b1 w
b100100 y
1{

#260000
0!
0.
08
0A
0H

#265000
1!
b1111 !!
1"!
b100010001000100010011 (!
b11 )!
b10011 *!
b0 ,!
1.
b1111 .!
b0 /!
b1 0!
b0 1!
12!
b10 3!
b1 4!
b1 7!
18
b1 8!
b11111110001100010001011011100011 9
b0 9!
b11000 :!
b100100 ;!
b100100 =
b1111 >
bx ?
1A
b11011 E
1H
b11111110001100010001011011100011 J
b100100 M
b1111 N
b100010001000100010011 O
b0 P
1Q
b10 T
b11 V
b1 W
b10010000000000 X
b1 Y
b10 Z
b1 [
b10 \
b100000 ]
b11 _
b1 `
0a
b1 d
b0 f
b0 h
b11111111111111111111111111111100 i
b0 k
b11101 l
b11100 m
b1 n
b1111 o
b0 p
b1111 q
b0 s
b100 t
b0 u
b1111 v
b0 w
b1 x
b11000 y
1z
b1111 }
b100 ~

#270000
0!
0.
08
0A
0H

#275000
1!
b100 $!
b1111 &!
b1111 '!
b10011 (!
b0 +!
1.
b0 .!
b0 0!
b100 1!
b0 3!
b0 4!
b100 5!
b1111 6!
b0 7!
18
b0 8!
b11111111111100100000001000010011 9
b100 9!
b11100 :!
b11000 ;!
b11000 =
b0 ?
1A
b11100 E
1H
b11111111111100100000001000010011 J
b11000 M
b10011 O
1Q
b0 T
b11 V
b0 W
b0 X
b0 Y
b0 Z
b0 [
b0 \
b0 ]
b0 ^
b11 _
b0 `
b0 d
b0 g
b0 i
b0 j
b0 l
b0 m
b0 n
b0 o
b0 q
b0 v
b100 w
b0 x
b11100 y
0z
0{
b11101 ~

#280000
0!
0.
08
0A
0H

#285000
1!
b0 !!
0"!
b11101 $!
b11111111111100100000001000010011 (!
b1111111 ,!
1.
b0 /!
02!
b100 3!
b11111 4!
b11101 5!
18
b11111110000000100001111011100011 9
b100000 :!
b11100 ;!
b11100 =
b0 >
1A
b11101 E
1H
b11111110000000100001111011100011 J
b11100 M
b0 N
b11111111111100100000001000010011 O
1Q
b11 V
b1111 W
bx X
b11111111111111111111111111111111 Y
b100 Z
b11111 [
b100 \
b11000 ]
b11 _
1a
b11 f
b0 s
b0 t
b100000 y
b0 }
b0 ~

#290000
0!
0.
08
0A
0H

#295000
1!
b0 $!
b0 &!
b0 '!
b11111110000000100001111011100011 (!
b111 )!
b1100011 *!
b1 +!
1.
b1111 .!
b11111111111111111111111111111111 /!
b1 1!
b0 4!
b0 5!
b0 6!
18
b100010001000100010011 9
b1 9!
b100100 :!
b100000 ;!
b100000 =
1A
b11110 E
1H
b100010001000100010011 J
b100000 M
b11111110000000100001111011100011 O
b1 P
0Q
b1 T
b0 V
b0 X
b11111111111111111111111111111100 Y
b0 [
b11101 \
b11100 ]
b1 ^
b111 _
b1111 g
bx h
b11111111111111111111111111111111 i
b100 j
b11111 k
b100 l
b11000 m
b1111 o
bx p
b1111 q
b11111111111111111111111111111111 s
b11111111111111111111111111111111 t
bx u
b1110 v
b1 w
b100100 y
1{

#300000
0!
0.
08
0A
0H

#305000
1!
b1110 !!
1"!
b100010001000100010011 (!
b11 )!
b10011 *!
b0 ,!
1.
b1110 .!
b0 /!
b1 0!
b0 1!
12!
b10 3!
b1 4!
b1 7!
18
b1 8!
b11111110001100010001011011100011 9
b0 9!
b11000 :!
b100100 ;!
b100100 =
b1110 >
bx ?
1A
b11111 E
1H
b11111110001100010001011011100011 J
b100100 M
b1110 N
b100010001000100010011 O
b0 P
1Q
b10 T
b11 V
b1 W
b10010000000000 X
b1 Y
b10 Z
b1 [
b10 \
b100000 ]
b11 _
b1 `
0a
b1 d
b0 f
b0 h
b11111111111111111111111111111100 i
b0 k
b11101 l
b11100 m
b1 n
b1110 o
b0 p
b1110 q
b0 s
b100 t
b0 u
b1110 v
b0 w
b1 x
b11000 y
1z
b1110 }
b100 ~

#310000
0!
0.
08
0A
0H

